0.001
0.002
0.008
0.025
0.045
0.084
0.131
0.218
0.342
0.508
0.749
1.072
1.476
1.971
2.511
3.045
3.506
3.929
4.363
4.787
5.201
5.626
6.064
6.447
6.856
7.225
7.648
8.02
8.395
8.716
9.037
9.316
9.621
9.913
10.256
10.586
10.934
11.301
11.647
12.026
12.435
12.835
13.24
13.629
14.033
14.389
14.763
15.143
15.542
15.883
16.23
16.537
16.838
17.102
17.36
17.583
17.789
17.958
18.156
18.351
18.504
18.631
18.786
18.956
19.085
19.271
19.477
19.688
19.91
20.158
20.357
20.58
20.772
20.965
21.166
21.314
21.46
21.6
21.747
21.909
22.005
22.125
22.218
22.342
22.481
22.653
22.762
22.891
23.048
23.179
23.331
23.446
23.539
23.602
23.692
23.808
23.895
23.981
24.013
24.066
24.138
24.221
24.286
24.354
24.463
24.476
24.588
24.653
24.747
24.861
24.927
25.006
25.039
25.121
25.25
25.317
25.394
25.508
25.561
25.637
25.732
25.843
25.914
26.02
26.107
26.189
26.27
26.37
26.474
26.561
26.647
26.708
26.83
26.913
26.977
27.067
27.101
27.172
27.277
27.314
27.399
27.433
27.511
27.525
27.572
27.636
27.654
27.703
27.738
27.774
27.793
27.841
27.87
27.895
27.941
27.962
28.021
28.074
28.166
28.194
28.245
28.274
28.309
28.381
28.466
28.582
28.673
28.738
28.768
28.786
28.825
28.85
28.966
29.024
29.077
29.156
29.234
29.332
29.383
29.48
29.544
29.56
29.591
29.606
29.63
29.63
29.669
29.702
29.724
29.74
29.74
29.744
29.74
29.752
29.777
29.829
29.869
29.914
29.96
29.991
29.991
30.031
30.07
30.121
30.164
30.212
30.235
30.276
30.353
30.381
30.355
30.424
30.469
30.462
30.44
30.422
30.44
30.458
30.498
30.476
30.463
30.483
30.469
30.464
30.46
30.472
30.446
30.468
30.493
30.478
30.473
30.492
30.506
30.56
30.56
30.543
30.565
30.578
30.579
30.588
30.597
30.605
30.596
30.577
30.559
30.583
30.643
30.657
30.657
30.662
30.71
30.776
30.833
30.901
30.903
30.951
30.953
30.983
31.013
31.056
31.078
31.093
31.113
31.122
31.132
31.146
31.17
31.17
31.173
31.202
31.191
31.216
31.229
31.254
31.261
31.295
31.317
31.35
31.33
31.347
31.367
31.351
31.389
31.387
31.371
31.389
31.395
31.42
31.459
31.459
31.454
31.447
31.457
31.476
31.497
31.51
31.533
31.552
31.558
31.581
31.584
31.565
31.595
31.625
31.651
31.627
31.625
31.647
31.669
31.654
31.669
31.672
31.682
31.706
31.721
31.736
31.746
31.767
31.764
31.783
31.785
31.831
31.847
31.858
31.882
31.9
31.918
31.926
31.934
31.94
31.942
31.932
31.945
31.959
31.967
31.965
31.943
31.965
31.971
31.941
31.944
31.927
31.928
31.935
31.946
31.936
31.959
31.999
32.013
31.988
32.017
32.027
32.042
32.07
32.043
32.066
32.067
32.085
32.074
32.062
32.062
32.04
32.042
32.015
31.986
31.976
31.956
31.938
31.99
31.995
31.987
31.926
31.941
31.969
31.996
32.018
32.048
31.998
32.004
31.987
32
32.004
32.003
31.98
31.952
31.957
31.961
31.975
31.97
31.964
31.947
31.953
31.949
31.95
31.929
31.929
31.966
31.987
31.985
31.982
31.98
31.969
31.987
31.984
31.984
31.965
31.927
31.952
31.936
31.948
31.935
31.946
31.928
31.934
31.901
31.881
31.913
31.944
31.928
31.939
31.937
31.948
31.972
31.959
31.994
31.984
31.973
31.987
31.977
31.992
31.984
31.957
31.976
31.952
31.967
31.972
31.959
31.93
31.957
31.983
31.959
31.983
31.978
32
32.022
32.016
32.001
31.982
31.989
31.944
31.956
31.938
31.939
31.935
31.9
31.898
31.884
31.866
31.904
31.945
31.932
31.947
31.97
31.994
32.039
32.056
32.061
32.01
32.01
32.041
32.039
32.033
31.995
31.984
31.99
31.975
31.986
31.956
31.977
31.966
31.962
31.928
31.954
31.948
31.931
31.915
31.938
31.911
31.929
31.905
31.894
31.892
31.917
31.918
31.918
31.879
31.879
31.884
31.876
31.902
31.949
31.936
31.918
31.876
31.869
31.857
31.842
31.851
31.837
31.798
31.835
31.809
31.798
31.77
31.771
31.76
31.762
31.788
31.754
31.749
31.683
31.668
31.642
31.633
31.694
31.707
31.698
31.722
31.734
31.755
31.795
31.807
31.795
31.789
31.798
31.819
31.78
31.81
31.834
31.831
31.821
31.818
31.812
31.808
31.795
31.819
31.773
31.771
31.775
31.814
31.877
31.874
31.891
31.884
31.903
31.875
31.884
31.896
31.889
31.862
31.884
31.86
31.844
31.857
31.892
31.888
31.9
31.92
31.921
31.909
31.919
31.932
31.934
31.93
31.925
31.906
31.901
31.924
31.909
31.947
31.945
31.968
32.001
32.036
32.02
32.003
31.956
31.961
31.95
31.967
31.951
31.959
31.974
31.964
31.952
31.956
31.981
31.98
31.955
31.943
31.938
31.956
31.999
32.039
32.036
32.031
32.035
32.035
32.073
32.1
32.069
32.098
32.071
32.122
32.13
32.165
32.148
32.142
32.148
32.196
32.207
32.187
32.17
32.169
32.145
32.179
32.167
32.157
32.164
32.143
32.136
32.143
32.151
32.167
32.182
32.188
32.203
32.233
32.239
32.254
32.24
32.23
32.222
32.201
32.21
32.209
32.224
32.235
32.192
32.174
32.19
32.198
32.203
32.219
32.253
32.22
32.221
32.194
32.218
32.178
32.149
32.165
32.152
32.164
32.18
32.167
32.188
32.212
32.201
32.161
32.159
32.163
32.185
32.175
32.18
32.179
32.169
32.182
32.154
32.145
32.16
32.189
32.225
32.263
32.248
32.244
32.245
32.261
32.295
32.314
32.32
32.32
32.307
32.321
32.294
32.26
32.25
32.257
32.259
32.242
32.271
32.283
32.287
32.27
32.281
32.261
32.243
32.234
32.243
32.167
32.15
32.146
32.149
32.151
32.153
32.13
32.134
32.128
32.129
32.078
32.069
32.044
32.051
32.037
31.993
31.991
31.968
32.004
32.017
32.03
32.016
32
32.007
32.032
32.023
32.05
32.046
32.062
32.05
32.052
32.054
32.026
32.028
32.028
32.023
32.016
32.029
32.028
31.995
32.013
31.987
31.931
31.9
31.929
31.932
31.935
31.95
31.972
31.944
31.917
31.898
31.912
31.904
31.915
31.902
31.919
31.976
31.954
31.971
31.961
31.953
31.946
31.965
31.992
32.004
32.016
32.006
32.024
32.011
31.985
31.988
31.983
32.007
31.995
31.979
32.023
32.053
32.058
32.049
32.044
32.047
32.041
32.088
32.116
32.134
32.114
32.105
32.1
32.14
32.131
32.164
32.17
32.182
32.191
32.215
32.186
32.17
32.188
32.213
32.183
32.194
32.215
32.186
32.196
32.168
32.153
32.133
32.111
32.14
32.171
32.166
32.199
32.174
32.147
32.152
32.144
32.133
32.151
32.132
32.115
32.141
32.161
32.129
32.087
32.078
32.024
31.99
31.948
31.981
31.953
31.976
31.97
31.96
31.952
31.923
31.945
31.934
31.934
31.937
31.933
31.928
31.944
31.942
31.939
31.966
31.971
31.99
32.002
32.02
32.002
31.996
32.04
32.048
32.044
31.981
31.996
31.956
31.975
31.995
32.02
32.014
32.047
32.053
32.071
32.063
32.065
32.09
32.092
32.148
32.12
32.136
32.112
32.132
32.143
32.149
32.194
32.207
32.194
32.267
32.287
32.274
32.295
32.323
32.325
32.338
32.346
32.328
32.308
32.301
32.293
32.282
32.256
32.245
32.265
32.23
32.212
32.18
32.17
32.162
32.145
32.147
32.114
32.096
32.063
32.077
32.066
32.072
32.088
32.108
32.116
32.072
32.087
32.064
32.055
32.091
32.071
32.065
32.062
32.083
32.104
32.112
32.088
32.084
32.036
32.047
32.018
32.05
32.022
31.989
31.962
31.975
31.986
32.012
31.989
32.016
32.019
31.997
32.018
32.032
32.027
31.987
31.973
31.942
31.938
31.939
31.964
31.98
31.982
31.963
31.945
31.962
31.912
31.882
31.883
31.918
31.937
31.909
31.88
31.884
31.902
31.877
31.918
31.913
31.934
31.95
31.957
31.925
31.952
31.972
32.015
32.001
32.015
32.005
31.992
32.022
32.001
32
31.991
32.026
32.013
32.029
32.013
32.024
32.005
31.991
31.99
31.979
31.992
32
31.987
