0.003
0.012
0.033
0.059
0.117
0.222
0.407
0.662
1.017
1.432
1.858
2.241
2.702
3.154
3.598
4.04
4.494
4.898
5.295
5.69
6.082
6.478
6.886
7.298
7.72
8.134
8.584
8.99
9.401
9.801
10.164
10.465
10.789
11.094
11.392
11.706
12.036
12.357
12.648
12.924
13.16
13.399
13.654
13.887
14.11
14.35
14.615
14.881
15.139
15.384
15.657
15.937
16.164
16.399
16.638
16.893
17.122
17.329
17.505
17.758
17.951
18.111
18.297
18.47
18.627
18.792
18.95
19.111
19.246
19.371
19.487
19.618
19.797
19.979
20.202
20.409
20.559
20.733
20.942
21.149
21.345
21.548
21.712
21.801
21.972
22.139
22.271
22.401
22.523
22.644
22.75
22.819
22.871
22.951
23.005
23.103
23.114
23.163
23.191
23.232
23.296
23.376
23.444
23.505
23.553
23.641
23.713
23.771
23.874
23.936
24.004
24.113
24.203
24.336
24.451
24.567
24.649
24.715
24.807
24.921
24.971
25.06
25.091
25.186
25.199
25.25
25.307
25.34
25.42
25.462
25.534
25.579
25.622
25.707
25.744
25.821
25.923
26.001
26.083
26.21
26.268
26.352
26.395
26.458
26.545
26.665
26.776
26.885
27.001
27.141
27.246
27.332
27.394
27.516
27.625
27.665
27.728
27.748
27.791
27.842
27.849
27.889
27.927
27.988
28.039
28.086
28.141
28.215
28.298
28.397
28.489
28.584
28.658
28.767
28.854
28.934
29
29.096
29.211
29.31
29.4
29.485
29.592
29.688
29.794
29.872
29.956
30.034
30.103
30.184
30.228
30.274
30.327
30.322
30.364
30.391
30.406
30.42
30.416
30.408
30.425
30.448
30.468
30.498
30.516
30.516
30.538
30.574
30.587
30.633
30.607
30.603
30.635
30.663
30.71
30.714
30.731
30.746
30.756
30.791
30.785
30.797
30.792
30.805
30.833
30.881
30.907
30.949
30.964
30.991
31.012
31.052
31.111
31.173
31.213
31.275
31.277
31.278
31.314
31.326
31.387
31.416
31.428
31.439
31.43
31.454
31.448
31.47
31.475
31.491
31.509
31.51
31.51
31.499
31.508
31.515
31.501
31.472
31.525
31.522
31.5
31.488
31.503
31.485
31.489
31.469
31.504
31.493
31.476
31.462
31.481
31.477
31.482
31.522
31.533
31.512
31.506
31.512
31.514
31.564
31.551
31.545
31.542
31.535
31.558
31.531
31.574
31.581
31.601
31.615
31.617
31.609
31.625
31.66
31.676
31.693
31.762
31.791
31.777
31.795
31.795
31.79
31.798
31.795
31.835
31.802
31.83
31.804
31.829
31.845
31.876
31.899
31.861
31.899
31.89
31.923
31.953
31.969
31.999
32.016
32.002
32.003
32
32.046
32.017
31.968
31.986
31.94
31.928
31.9
31.893
31.906
31.883
31.872
31.877
31.91
31.908
31.946
31.92
31.987
32.017
32.045
32.034
32.025
32.041
32.066
32.083
32.062
32.034
32.043
32.069
32.052
32.066
32.067
32.121
32.128
32.096
32.089
32.097
32.056
32.063
32.05
32.04
32.051
32.009
31.996
31.968
31.975
31.959
31.96
31.977
31.967
31.952
31.947
31.952
31.924
31.912
31.876
31.873
31.887
31.899
31.904
31.877
31.887
31.884
31.903
31.876
31.874
31.871
31.867
31.884
31.911
31.894
31.942
31.928
31.943
31.95
31.96
31.986
32.012
32.041
32.028
32.066
32.083
32.073
32.053
32.023
32.049
32.058
32.057
32.084
32.075
32.099
32.122
32.121
32.16
32.163
32.172
32.167
32.138
32.123
32.131
32.128
32.135
32.132
32.134
32.111
32.123
32.111
32.153
32.18
32.183
32.19
32.204
32.237
32.271
32.265
32.268
32.266
32.257
32.232
32.202
32.23
32.222
32.238
32.214
32.231
32.24
32.239
32.255
32.238
32.252
32.249
32.246
32.254
32.22
32.224
32.238
32.236
32.265
32.266
32.277
32.266
32.263
32.283
32.256
32.245
32.224
32.245
32.2
32.194
32.206
32.207
32.207
32.2
32.208
32.239
32.219
32.202
32.218
32.212
32.206
32.208
32.223
32.25
32.233
32.197
32.204
32.198
32.177
32.197
32.199
32.234
32.215
32.213
32.212
32.196
32.193
32.189
32.159
32.153
32.165
32.144
32.176
32.128
32.139
32.116
32.134
32.137
32.127
32.129
32.104
32.131
32.079
32.103
32.103
32.092
32.056
32.057
32.062
32.063
32.077
32.112
32.122
32.114
32.098
32.117
32.109
32.118
32.106
32.074
32.066
32.07
32.058
32.064
32.073
32.065
32.099
32.106
32.082
32.066
32.093
32.065
32.082
32.016
32.032
32.02
31.998
32.039
32.078
32.02
32.07
32.069
32.086
32.127
32.141
32.169
32.18
32.135
32.12
32.079
32.086
32.082
32.087
32.071
32.059
32.111
32.1
32.085
32.095
32.108
32.113
32.117
32.134
32.172
32.14
32.147
32.184
32.154
32.167
32.145
32.154
32.132
32.154
32.119
32.119
32.138
32.177
32.19
32.212
32.23
32.234
32.218
32.212
32.211
32.157
32.147
32.152
32.133
32.143
32.127
32.142
32.127
32.143
32.135
32.136
32.114
32.118
32.096
32.133
32.142
32.126
32.147
32.153
32.137
32.124
32.107
32.069
32.023
32.039
32.091
32.095
32.117
32.117
32.135
32.138
32.145
32.152
32.113
32.129
32.101
32.074
32.096
32.096
32.133
32.142
32.134
32.169
32.181
32.149
32.155
32.149
32.147
32.197
32.178
32.152
32.143
32.167
32.192
32.193
32.252
32.222
32.206
32.17
32.185
32.162
32.13
32.114
32.099
32.113
32.121
32.13
32.155
32.151
32.144
32.129
32.179
32.153
32.156
32.131
32.138
32.135
32.087
32.06
32.03
31.977
31.953
31.954
31.959
31.963
31.95
31.955
31.997
31.991
31.992
32.006
32.017
31.977
32.004
31.959
31.978
31.964
31.972
31.953
31.956
31.997
31.985
31.97
31.953
31.943
31.961
31.949
31.966
31.976
31.999
32
32.001
31.98
31.982
32.027
32.031
32.039
32.079
32.056
32.014
32.033
32.028
32.042
32.017
32.031
32.013
32.005
32.001
31.951
31.978
31.965
31.966
31.981
32.006
31.997
32.018
31.984
31.989
31.971
31.949
31.968
31.989
31.996
31.995
31.977
31.94
31.958
31.964
31.97
31.987
31.987
32.01
32.043
32.061
32.075
32.074
32.083
32.081
32.088
32.111
32.126
32.146
32.159
32.169
32.18
32.179
32.14
32.155
32.115
32.125
32.106
32.074
32.108
32.099
32.064
32.067
32.071
32.076
32.009
31.995
31.986
32.053
32.052
32.087
32.046
32.039
32.05
32.085
32.091
32.077
32.057
32.027
32.045
32.017
32.031
32.058
32.093
32.13
32.105
32.085
32.075
32.065
32.073
32.091
32.108
32.089
32.086
32.099
32.095
32.051
32.041
32.038
32.044
32.087
32.097
32.103
32.076
32.066
32.065
32.074
32.081
32.1
32.085
32.1
32.061
32.064
32.026
31.993
31.966
31.951
31.929
31.931
31.939
31.933
31.942
31.944
31.932
31.889
31.946
31.94
31.955
31.928
31.928
31.941
31.927
31.921
31.915
31.908
31.903
31.87
31.859
31.87
31.876
31.854
31.879
31.887
31.909
31.914
31.899
31.914
31.923
31.931
31.928
31.913
31.923
31.939
31.928
31.903
31.885
31.877
31.822
31.846
31.811
31.823
31.816
31.832
31.821
31.821
31.837
31.862
31.831
31.821
31.801
31.813
31.807
31.805
31.835
31.874
31.876
31.881
31.884
31.87
31.841
31.82
31.865
31.881
31.869
31.862
31.861
31.875
31.874
31.88
31.896
31.884
31.885
31.928
31.89
31.908
31.908
31.873
31.837
31.835
31.804
31.813
31.801
31.802
31.796
31.81
31.769
31.786
31.778
31.835
31.81
31.777
31.762
31.756
31.707
31.708
31.713
31.739
31.741
31.742
31.77
31.792
31.797
31.79
31.776
31.778
31.753
31.743
31.737
31.719
31.734
31.77
31.8
31.8
31.809
31.797
31.833
31.83
31.841
31.834
31.833
31.851
31.874
31.876
31.894
31.894
31.89
31.898
31.86
31.875
31.892
31.909
31.967
31.964
31.943
31.948
31.95
31.999
31.991
31.996
31.983
32.003
32.049
32.03
32.044
32.007
31.982
31.997
31.961
31.937
31.897
31.881
31.909
31.915
31.943
31.957
31.972
31.954
31.958
31.955
31.95
31.936
31.943
31.956
31.979
31.968
31.981
31.976
31.976
31.973
31.994
32.031
32.038
